Predicting Pitcher ERA (NCAA Division 1)
…
Fitted model parameters for the linear regression

lm_model <- linear_reg() %>% 
  set_engine("lm")

lm_workflow <- workflow() %>%
  add_model(lm_model) %>%
  add_recipe(recip)

lm_fit <- fit(lm_workflow,train_data)

lm_fit %>% extract_fit_parsnip() %>% tidy()

## # A tibble: 41 x 5
##    term                      estimate std.error statistic     p.value
##    <chr>                        <dbl>     <dbl>     <dbl>       <dbl>
##  1 (Intercept)                 4.61      0.0531    86.8   0          
##  2 Strike_Percent              0.112     0.0637     1.76  0.0784     
##  3 K_BB                       -0.330     0.0653    -5.05  0.000000571
##  4 median_Distance            -0.0165    0.0753    -0.219 0.827      
##  5 median_ExitSpeed            0.137     0.0613     2.24  0.0255     
##  6 median_Extension           -0.161     0.0577    -2.78  0.00555    
##  7 median_SpinRate_Fastball   -0.0559    0.0674    -0.829 0.407      
##  8 median_SpinRate_Slider     -0.0368    0.0705    -0.522 0.602      
##  9 median_SpinRate_Curveball  -0.0753    0.0669    -1.13  0.260      
## 10 median_SpinRate_ChangeUp   -0.0301    0.0595    -0.506 0.613      
## # ... with 31 more rows
…
Looking at the plot to help determine the amount of regularization,
we see the lowest rmse comes from a ridge regression, penalty = 0 and
the highest rsq comes from a penalty term = 1. We will use the
select_best() function to determine which model to fit to
the training data.

tune_ridge <- read_rds("models/ridge_tuned.rds")
collect_metrics(tune_ridge)

## # A tibble: 50 x 8
##         penalty mixture .metric .estimator     mean     n std_err .config       
##           <dbl>   <dbl> <chr>   <chr>         <dbl> <int>   <dbl> <chr>         
##  1      0.00001       0 rmse    standard     1.44       5  0.0427 Preprocessor1~
##  2      0.00001       0 rsq     standard     0.104      5  0.0124 Preprocessor1~
##  3      0.00316       0 rmse    standard     1.44       5  0.0427 Preprocessor1~
##  4      0.00316       0 rsq     standard     0.104      5  0.0124 Preprocessor1~
##  5      1             0 rmse    standard     1.42       5  0.0346 Preprocessor1~
##  6      1             0 rsq     standard     0.110      5  0.0184 Preprocessor1~
##  7    316.            0 rmse    standard     1.49       5  0.0370 Preprocessor1~
##  8    316.            0 rsq     standard     0.0823     5  0.0228 Preprocessor1~
##  9 100000             0 rmse    standard     1.49       5  0.0370 Preprocessor1~
## 10 100000             0 rsq     standard   NaN          0 NA      Preprocessor1~
## # ... with 40 more rows
…
